{
  "name": "person",
  "plural": "people",
  "base": "PersistedModel",
  "idInjection": true,
  "options": {
    "validateUpsert": true
  },
  "properties": {
    "firstname": {
      "type": "string",
      "required": true,
      "default": ""
    }
  },
  "validations": [],
  "relations": {},
  "acls": [],
  "methods": {}
}
